<?xml version="1.0" encoding="UTF-8" standalone="no"?>
<!-- Created with Inkscape (http://www.inkscape.org/) -->

<svg
   xmlns:dc="http://purl.org/dc/elements/1.1/"
   xmlns:cc="http://creativecommons.org/ns#"
   xmlns:rdf="http://www.w3.org/1999/02/22-rdf-syntax-ns#"
   xmlns:svg="http://www.w3.org/2000/svg"
   xmlns="http://www.w3.org/2000/svg"
   xmlns:xlink="http://www.w3.org/1999/xlink"
   xmlns:sodipodi="http://sodipodi.sourceforge.net/DTD/sodipodi-0.dtd"
   xmlns:inkscape="http://www.inkscape.org/namespaces/inkscape"
   width="134.10968mm"
   height="100.39497mm"
   viewBox="0 0 134.10968 100.39497"
   version="1.1"
   id="svg8"
   sodipodi:docname="Logo.svg"
   inkscape:version="0.92.3 (2405546, 2018-03-11)"
   inkscape:export-filename="/media/evan/DataDrive/Documents/PersonalProjects/web-dev/environmental/Documents/images/logo/Logo.png"
   inkscape:export-xdpi="96"
   inkscape:export-ydpi="96">
  <defs
     id="defs2" />
  <sodipodi:namedview
     id="base"
     pagecolor="#ffffff"
     bordercolor="#666666"
     borderopacity="1.0"
     inkscape:pageopacity="0.0"
     inkscape:pageshadow="2"
     inkscape:zoom="1.4142136"
     inkscape:cx="182.35549"
     inkscape:cy="180.35161"
     inkscape:document-units="px"
     inkscape:current-layer="layer3"
     showgrid="false"
     inkscape:window-width="1920"
     inkscape:window-height="1022"
     inkscape:window-x="1920"
     inkscape:window-y="0"
     inkscape:window-maximized="1"
     showborder="false"
     fit-margin-top="0"
     fit-margin-left="0"
     fit-margin-right="0"
     fit-margin-bottom="0" />
  <metadata
     id="metadata5">
    <rdf:RDF>
      <cc:Work
         rdf:about="">
        <dc:format>image/svg+xml</dc:format>
        <dc:type
           rdf:resource="http://purl.org/dc/dcmitype/StillImage" />
        <dc:title></dc:title>
      </cc:Work>
    </rdf:RDF>
  </metadata>
  <g
     inkscape:label="Source"
     inkscape:groupmode="layer"
     id="layer1"
     style="display:none;opacity:0.5"
     transform="translate(-38.875929,-37.076768)">
    <image
       sodipodi:absref="/media/evan/DataDrive/Documents/PersonalProjects/web-dev/environmental/Documents/images/logo/source.jpg"
       xlink:href="source.jpg"
       y="3.7207153"
       x="15.905234"
       id="image893"
       preserveAspectRatio="none"
       height="177.58833"
       width="177.58833" />
  </g>
  <g
     inkscape:groupmode="layer"
     id="layer2"
     inkscape:label="Ocean"
     style="display:inline;opacity:1"
     transform="translate(-38.875929,-37.076768)">
    <ellipse
       style="opacity:1;fill:#0000ff;fill-opacity:1;stroke:#000000;stroke-width:0.46937412;stroke-opacity:1"
       id="path926"
       ry="45.967834"
       rx="47.879517"
       cy="83.279289"
       cx="106.39458" />
  </g>
  <g
     inkscape:groupmode="layer"
     id="layer4"
     inkscape:label="Land"
     style="display:inline"
     transform="translate(-38.875929,-37.076768)">
    <path
       style="display:inline;fill:#008000;stroke:#000000;stroke-width:0.26458332px;stroke-linecap:butt;stroke-linejoin:miter;stroke-opacity:1"
       d="m 151.41882,98.726892 c -5.52708,-0.430502 -11.42562,-1.148819 -16.64488,1.169938 -1.77134,2.38868 -4.75105,7.14452 -7.64183,3.05996 -2.6957,-1.7901 -7.05842,-3.201141 -5.07037,-7.262798 1.102,-3.608698 -3.79396,-2.838161 -3.54401,0.20654 -1.83683,3.925335 -6.90347,0.130566 -6.86004,-3.170877 -1.17136,-4.506994 3.44612,-8.506554 7.77039,-7.988883 3.37116,-0.79747 5.94345,1.561721 6.8974,4.351876 3.24896,-1.374968 -2.07998,-5.054772 -0.56865,-7.559166 1.60656,-2.860529 3.16344,-5.654697 3.14321,-9.059164 0.59359,-1.576368 1.41997,-2.002516 0.85433,-3.671072 2.6405,-2.594589 1.93799,-5.857403 1.18498,-9.122281 -1.40444,-4.145333 -7.4136,-1.520877 -10.19939,-4.70749 -1.26697,-0.561625 -4.49465,-4.303886 -2.97273,-1.008711 1.77486,1.508964 4.91332,6.70576 1.27406,7.121881 -1.65418,-3.350289 -7.42364,-0.712678 -8.39306,-4.97498 1.63309,-4.882925 -4.26608,-6.035952 -7.74169,-4.720655 -2.7918,2.829112 -7.743596,1.041025 -9.068293,-2.424505 -1.091363,-3.646375 -5.439658,-1.135687 -7.447129,0.151427 1.952065,2.4973 4.920368,5.23574 4.794948,8.920336 -0.177494,4.193266 0.954765,8.519068 -0.547554,12.59933 -1.025365,4.204755 0.93024,8.175695 2.774161,11.818616 1.564169,3.336346 3.267421,6.70308 5.887707,9.348745 -0.07401,-2.54823 -3.292809,-4.759711 -1.825988,-7.323839 1.735943,4.236782 6.393498,7.020139 6.660768,11.856406 2.29601,3.475407 7.09891,3.600578 10.75405,4.722524 3.61029,0.69941 7.21498,0.58655 9.29363,3.94766 2.43847,2.07201 8.38691,-1.01077 6.895,4.21226 -1.16638,4.04027 3.0919,7.39846 6.4888,8.42588 3.42671,-1.41965 5.52942,-5.32446 8.04136,-8.07745 2.44272,-3.3094 4.45969,-6.95048 5.81082,-10.841508 z"
       id="path947"
       inkscape:connector-curvature="0" />
  </g>
  <g
     inkscape:groupmode="layer"
     id="layer5"
     inkscape:label="Ice"
     style="display:none"
     transform="translate(-38.875929,-37.076768)">
    <path
       style="fill:#ffffff;stroke:#000000;stroke-width:0.26458332px;stroke-linecap:butt;stroke-linejoin:miter;stroke-opacity:1"
       d="m 71.982366,51.25903 c -3.334187,0.33014 35.612444,17.77946 68.895404,0 -35.53745,-31.13361 -68.635794,-0.673658 -68.895404,0 z"
       id="path992"
       inkscape:connector-curvature="0"
       sodipodi:nodetypes="ccc" />
  </g>
  <g
     inkscape:groupmode="layer"
     id="layer3"
     inkscape:label="Hands"
     style="display:inline"
     transform="translate(-38.875929,-37.076768)">
    <path
       style="fill:#e9afaf;fill-opacity:1;stroke:#070000;stroke-width:2.3812499;stroke-linecap:butt;stroke-linejoin:miter;stroke-miterlimit:4;stroke-dasharray:none;stroke-opacity:1"
       d="m 63.169255,38.774186 c -0.295321,-0.131254 -14.099135,8.962798 -19.835293,23.663377 -1.181464,3.027846 -1.2654,3.484275 -1.706732,5.332043 -1.629502,6.822404 -1.780195,15.758537 -1.34873,20.562583 1.263574,14.068981 0.649433,11.940571 4.010335,16.225271 1.731258,2.20828 7.290225,10.77203 21.198429,17.79649 9.196023,4.64454 21.101549,7.26659 35.157816,2.90716 2.49806,-0.77475 3.86436,-1.70324 4.54008,-2.66273 1.22832,-1.74416 0.1747,-3.59075 -0.51072,-4.80249 -3.33423,-5.89444 -9.066645,-4.50132 -17.258522,-5.36708 0,0 -19.334955,-2.86057 -16.139583,-10.18645 2.454501,-5.627323 -2.503355,-9.241918 -4.02516,-12.645209 -1.988955,-4.448004 -0.255328,-6.407979 2.309735,-19.644507 2.441829,-12.600601 5.419591,-14.673832 5.419591,-14.673832 0,0 6.660861,-8.831865 8.334375,-9.392708 2.105871,-0.705738 -12.942929,-9.3928 -20.145621,-7.111918 z"
       id="path994"
       inkscape:connector-curvature="0"
       sodipodi:nodetypes="cssscsssscssscsc" />
    <path
       style="fill:none;stroke:#000000;stroke-width:2.3812499;stroke-linecap:butt;stroke-linejoin:miter;stroke-miterlimit:4;stroke-dasharray:none;stroke-opacity:1"
       d="m 42.965918,63.679333 c -1.465812,0.382517 5.255251,34.553123 13.193507,37.527387 6.99394,3.35212 13.752862,2.35404 15.603434,-3.550958"
       id="path1019"
       inkscape:connector-curvature="0"
       sodipodi:nodetypes="ccc" />
    <path
       style="fill:#e9afaf;fill-opacity:1;stroke:#000000;stroke-width:2.3812499;stroke-linecap:butt;stroke-linejoin:miter;stroke-miterlimit:4;stroke-dasharray:none;stroke-opacity:1"
       d="m 65.521647,122.74757 c 0,0 1.852083,8.59895 12.766146,11.77395 10.914062,3.175 33.403647,-1.32291 36.181777,-1.85208 2.77812,-0.52917 5.62239,-8.33437 -0.59532,-8.53281 -6.21771,-0.19844 -6.74687,-0.59531 -9.45885,0.0661 -2.71198,0.66146 -10.583337,3.3073 -38.893753,-1.4552 z"
       id="path1021"
       inkscape:connector-curvature="0"
       sodipodi:nodetypes="csssccc" />
    <path
       style="fill:#e9afaf;fill-opacity:1;stroke:#070000;stroke-width:2.3812499;stroke-linecap:butt;stroke-linejoin:miter;stroke-miterlimit:4;stroke-dasharray:none;stroke-opacity:1"
       d="m 148.69228,39.394681 c 0.29533,-0.131254 13.94958,9.022036 19.8353,23.663377 0.68537,1.704929 1.2654,3.484275 1.70673,5.332043 1.6295,6.822404 1.78019,15.758537 1.34873,20.562583 -1.26357,14.068986 -0.64943,11.940576 -4.01034,16.225276 -1.73125,2.20828 -7.29022,10.77203 -21.19842,17.79649 -9.19603,4.64454 -21.10155,7.26659 -35.15782,2.90716 -2.49806,-0.77475 -3.86436,-1.70324 -4.54008,-2.66273 -1.22832,-1.74416 -0.1747,-3.59075 0.51072,-4.80249 3.33423,-5.89444 9.06664,-4.50132 17.25852,-5.36708 0,0 19.33496,-2.86057 16.13958,-10.18645 -2.4545,-5.627328 2.50336,-9.241923 4.02516,-12.645214 1.98896,-4.448004 0.25533,-6.407979 -2.30973,-19.644507 -2.44183,-12.600601 -5.41959,-14.673832 -5.41959,-14.673832 0,0 -6.66086,-8.831865 -8.33438,-9.392708 -2.10587,-0.705738 12.94293,-9.3928 20.14562,-7.111918 z"
       id="path994-3"
       inkscape:connector-curvature="0"
       sodipodi:nodetypes="cssscsssscssscsc" />
    <path
       style="fill:none;stroke:#000000;stroke-width:2.3812499;stroke-linecap:butt;stroke-linejoin:miter;stroke-miterlimit:4;stroke-dasharray:none;stroke-opacity:1"
       d="m 168.89562,64.299828 c 1.46581,0.382517 -5.25525,34.553123 -13.19351,37.527392 -6.99394,3.35212 -13.91822,2.25482 -15.76879,-3.650182"
       id="path1019-2"
       inkscape:connector-curvature="0"
       sodipodi:nodetypes="ccc" />
    <path
       style="fill:#e9afaf;fill-opacity:1;stroke:#000000;stroke-width:2.3812499;stroke-linecap:butt;stroke-linejoin:miter;stroke-miterlimit:4;stroke-dasharray:none;stroke-opacity:1"
       d="m 146.33989,123.36807 c 0,0 -1.85208,8.59895 -12.76614,11.77395 -10.91407,3.175 -33.40365,-1.32291 -36.18178,-1.85208 -2.77812,-0.52917 -5.62239,-8.33437 0.59532,-8.53281 6.21771,-0.19844 6.74687,-0.59531 9.45885,0.0661 2.71198,0.66146 10.58334,3.3073 38.89375,-1.4552 z"
       id="path1021-1"
       inkscape:connector-curvature="0"
       sodipodi:nodetypes="csssccc" />
  </g>
  <g
     inkscape:groupmode="layer"
     id="layer6"
     inkscape:label="Crack"
     style="opacity:1"
     transform="translate(-38.875929,-37.076768)">
    <path
       style="fill:#000014;fill-opacity:1;stroke:#000000;stroke-width:0.50813466px;stroke-linecap:butt;stroke-linejoin:miter;stroke-opacity:1"
       d="m 97.585139,38.284405 14.196291,22.734973 -9.162,18.56381 8.47699,13.286784 -5.05195,-13.852179 10.1039,-15.171441 -6.85011,-26.385112 c 0,0 -8.54495,-0.119161 -11.713121,0.823165 z"
       id="path1097"
       inkscape:connector-curvature="0"
       sodipodi:nodetypes="cccccccc" />
  </g>
</svg>
